<?xml version="1.0" encoding="utf-8"?>
<!-- Generator: Adobe Illustrator 21.0.2, SVG Export Plug-In . SVG Version: 6.00 Build 0)  -->
<svg version="1.1" id="Layer_1" xmlns="http://www.w3.org/2000/svg" xmlns:xlink="http://www.w3.org/1999/xlink" x="0px" y="0px"
	 viewBox="0 0 127.3 89.2" style="enable-background:new 0 0 127.3 89.2;" xml:space="preserve">
<style type="text/css">
	.st0{fill:#0D156F;stroke:#FFFFFF;stroke-width:3.6;}
</style>
<title>EFB7F802-61DF-480A-B7AE-ADE6BB13D9E7</title>
<desc>Created with sketchtool.</desc>
<g id="Accueil-Desktop" transform="translate(-249.000000, -492.000000)">
	<g id="Group-5" transform="translate(189.000000, 155.000000)">
		<g id="Group-21-Copy">
			<g id="CA_1_" transform="translate(0.000000, 300.000000)">
				<g id="Group-11_1_">
					<g transform="translate(75.000000, 50.000000)">
						<ellipse id="Oval-5-Copy-3_3_" class="st0" cx="14.4" cy="46.1" rx="27.9" ry="10.7"/>
						<ellipse id="Oval-5-Copy-4_7_" class="st0" cx="82.6" cy="46.1" rx="27.9" ry="10.7"/>
						<ellipse id="Oval-5-Copy-3_2_" class="st0" cx="14.4" cy="34.4" rx="27.9" ry="10.7"/>
						<ellipse id="Oval-5-Copy-4_6_" class="st0" cx="82.6" cy="34.4" rx="27.9" ry="10.7"/>
						<ellipse id="Oval-5-Copy-2_1_" class="st0" cx="14.4" cy="22.8" rx="27.9" ry="10.7"/>
						<ellipse id="Oval-5-Copy-5_3_" class="st0" cx="82.6" cy="22.8" rx="27.9" ry="10.7"/>
						<ellipse id="Oval-5-Copy_1_" class="st0" cx="14.4" cy="11.2" rx="27.9" ry="10.7"/>
						<ellipse id="Oval-5-Copy-6_3_" class="st0" cx="82.6" cy="11.2" rx="27.9" ry="10.7"/>
						<ellipse id="Oval-5_1_" class="st0" cx="14.4" cy="-0.5" rx="27.9" ry="10.7"/>
						<ellipse id="Oval-5-Copy-7_3_" class="st0" cx="82.6" cy="-0.5" rx="27.9" ry="10.7"/>
						<ellipse id="Oval-5-Copy-4_5_" class="st0" cx="46.7" cy="63.1" rx="27.9" ry="10.7"/>
						<ellipse id="Oval-5-Copy-4_4_" class="st0" cx="46.7" cy="51.4" rx="27.9" ry="10.7"/>
						<ellipse id="Oval-5-Copy-5_2_" class="st0" cx="46.7" cy="39.8" rx="27.9" ry="10.7"/>
						<ellipse id="Oval-5-Copy-6_2_" class="st0" cx="46.7" cy="28.2" rx="27.9" ry="10.7"/>
						<ellipse id="Oval-5-Copy-7_2_" class="st0" cx="46.7" cy="16.5" rx="27.9" ry="10.7"/>
					</g>
				</g>
			</g>
		</g>
	</g>
</g>
</svg>
